Language English starts
                                                                                
+------------+---------+----------+--------+----------+----------+-------------+----------------+-----------+
|     project|  desktop|mobile web|language|  nr_words|     total|usage_desktop|usage_mobile web|usage_total|
+------------+---------+----------+--------+----------+----------+-------------+----------------+-----------+
|en.wikipedia|447968997| 849817209| English|4180601186|1297786206|        0.107|           0.203|       0.31|
+------------+---------+----------+--------+----------+----------+-------------+----------------+-----------+

Language Chinese starts
                                                                                
+------------+--------+----------+--------+---------+--------+-------------+----------------+-----------+
|     project| desktop|mobile web|language| nr_words|   total|usage_desktop|usage_mobile web|usage_total|
+------------+--------+----------+--------+---------+--------+-------------+----------------+-----------+
|zh.wikipedia|18099381|  54640419| Chinese|606302164|72739800|         0.03|            0.09|       0.12|
+------------+--------+----------+--------+---------+--------+-------------+----------------+-----------+

Language Hindi starts
                                                                                
+------------+-------+----------+--------+--------+-------+-------------+----------------+-----------+
|     project|desktop|mobile web|language|nr_words|  total|usage_desktop|usage_mobile web|usage_total|
+------------+-------+----------+--------+--------+-------+-------------+----------------+-----------+
|hi.wikipedia| 476894|   9160169|   Hindi|50154715|9637063|         0.01|           0.183|      0.192|
+------------+-------+----------+--------+--------+-------+-------------+----------------+-----------+

Language Spanish starts
                                                                                
+------------+--------+----------+--------+----------+---------+-------------+----------------+-----------+
|     project| desktop|mobile web|language|  nr_words|    total|usage_desktop|usage_mobile web|usage_total|
+------------+--------+----------+--------+----------+---------+-------------+----------------+-----------+
|es.wikipedia|40100818|  99473905| Spanish|1056914839|139574723|        0.038|           0.094|      0.132|
+------------+--------+----------+--------+----------+---------+-------------+----------------+-----------+

Language French starts
                                                                                
+------------+--------+----------+--------+----------+---------+-------------+----------------+-----------+
|     project| desktop|mobile web|language|  nr_words|    total|usage_desktop|usage_mobile web|usage_total|
+------------+--------+----------+--------+----------+---------+-------------+----------------+-----------+
|fr.wikipedia|35112319|  67725574|  French|1530272385|102837893|        0.023|           0.044|      0.067|
+------------+--------+----------+--------+----------+---------+-------------+----------------+-----------+

Language Arabic starts
                                                                                
+------------+-------+----------+--------+---------+--------+-------------+----------------+-----------+
|     project|desktop|mobile web|language| nr_words|   total|usage_desktop|usage_mobile web|usage_total|
+------------+-------+----------+--------+---------+--------+-------------+----------------+-----------+
|ar.wikipedia|3301556|  26976002|  Arabic|371156178|30277558|        0.009|           0.073|      0.082|
+------------+-------+----------+--------+---------+--------+-------------+----------------+-----------+

Language Bengali starts
                                                                                
+------------+-------+----------+--------+--------+-------+-------------+----------------+-----------+
|     project|desktop|mobile web|language|nr_words|  total|usage_desktop|usage_mobile web|usage_total|
+------------+-------+----------+--------+--------+-------+-------------+----------------+-----------+
|bn.wikipedia| 289917|   2959134| Bengali|59218059|3249051|        0.005|            0.05|      0.055|
+------------+-------+----------+--------+--------+-------+-------------+----------------+-----------+

Language Russian starts
                                                                                
+------------+--------+----------+--------+---------+---------+-------------+----------------+-----------+
|     project| desktop|mobile web|language| nr_words|    total|usage_desktop|usage_mobile web|usage_total|
+------------+--------+----------+--------+---------+---------+-------------+----------------+-----------+
|ru.wikipedia|50237243|  97010988| Russian|940422067|147248231|        0.053|           0.103|      0.157|
+------------+--------+----------+--------+---------+---------+-------------+----------------+-----------+

Language Portuguese starts
                                                                                
+------------+--------+----------+----------+---------+--------+-------------+----------------+-----------+
|     project| desktop|mobile web|  language| nr_words|   total|usage_desktop|usage_mobile web|usage_total|
+------------+--------+----------+----------+---------+--------+-------------+----------------+-----------+
|pt.wikipedia|14399679|  27768380|Portuguese|488744118|42168059|        0.029|           0.057|      0.086|
+------------+--------+----------+----------+---------+--------+-------------+----------------+-----------+

Language Indonesian starts
                                                                                
+------------+-------+----------+----------+---------+--------+-------------+----------------+-----------+
|     project|desktop|mobile web|  language| nr_words|   total|usage_desktop|usage_mobile web|usage_total|
+------------+-------+----------+----------+---------+--------+-------------+----------------+-----------+
|id.wikipedia|3477456|  12090985|Indonesian|175048431|15568441|         0.02|           0.069|      0.089|
+------------+-------+----------+----------+---------+--------+-------------+----------------+-----------+
